[
  {
    "Transaction_date": "01/02/2009",
    "Product": "Product1",
    "Price": "1200",
    "Payment_Type": "Mastercard",
    "Country": "United Kingdom"
  },
  {
    "Transaction_date": "01/09/2009",
    "Product": "Product1",
    "Price": "1200",
    "Payment_Type": "Mastercard",
    "Country": "United Kingdom"
  },
  {
    "Transaction_date": "01/04/2009",
    "Product": "Product1",
    "Price": "1200",
    "Payment_Type": "Mastercard",
    "Country": "United Kingdom"
  },
  {
    "Transaction_date": "01/12/2009",
    "Product": "Product1",
    "Price": "1200",
    "Payment_Type": "Mastercard",
    "Country": "United Kingdom"
  },
  {
    "Transaction_date": "01/11/2009",
    "Product": "Product1",
    "Price": "1200",
    "Payment_Type": "Mastercard",
    "Country": "United Kingdom"
  },
  {
    "Transaction_date": "01/03/2009",
    "Product": "Product1",
    "Price": "1200",
    "Payment_Type": "Mastercard",
    "Country": "Canada"
  },
  {
    "Transaction_date": "01/10/2009",
    "Product": "Product1",
    "Price": "1200",
    "Payment_Type": "Mastercard",
    "Country": "United Kingdom"
  },
  {
    "Transaction_date": "01/08/2009",
    "Product": "Product1",
    "Price": "1200",
    "Payment_Type": "Mastercard",
    "Country": "United Kingdom"
  },
  {
    "Transaction_date": "01/15/2009",
    "Product": "Product1",
    "Price": "1200",
    "Payment_Type": "Mastercard",
    "Country": "Canada"
  },
  {
    "Transaction_date": "01/13/2009",
    "Product": "Product1",
    "Price": "1200",
    "Payment_Type": "Mastercard",
    "Country": "Canada"
  },
  {
    "Transaction_date": "01/14/2009",
    "Product": "Product1",
    "Price": "1200",
    "Payment_Type": "Mastercard",
    "Country": "United Kingdom"
  },
  {
    "Transaction_date": "01/11/2009",
    "Product": "Product1",
    "Price": "1200",
    "Payment_Type": "Mastercard",
    "Country": "United Kingdom"
  },
  {
    "Transaction_date": "01/01/2009",
    "Product": "Product1",
    "Price": "1200",
    "Payment_Type": "Mastercard",
    "Country": "Canada"
  },
  {
    "Transaction_date": "01/13/2009",
    "Product": "Product1",
    "Price": "1200",
    "Payment_Type": "Mastercard",
    "Country": "Canada"
  },
  {
    "Transaction_date": "01/05/2009",
    "Product": "Product1",
    "Price": "1200",
    "Payment_Type": "Mastercard",
    "Country": "United Kingdom"
  },
  {
    "Transaction_date": "01/12/2009",
    "Product": "Product1",
    "Price": "1200",
    "Payment_Type": "Mastercard",
    "Country": "Canada"
  },
  {
    "Transaction_date": "01/06/2009",
    "Product": "Product1",
    "Price": "1200",
    "Payment_Type": "Mastercard",
    "Country": "Canada"
  },
  {
    "Transaction_date": "01/13/2009",
    "Product": "Product1",
    "Price": "1200",
    "Payment_Type": "Mastercard",
    "Country": "United Kingdom"
  },
  {
    "Transaction_date": "01/22/2009",
    "Product": "Product1",
    "Price": "1200",
    "Payment_Type": "Mastercard",
    "Country": "United Kingdom"
  },
  {
    "Transaction_date": "01/04/2009",
    "Product": "Product1",
    "Price": "1200",
    "Payment_Type": "Mastercard",
    "Country": "Canada"
  },
  {
    "Transaction_date": "01/10/2009",
    "Product": "Product1",
    "Price": "1200",
    "Payment_Type": "Mastercard",
    "Country": "Canada"
  },
  {
    "Transaction_date": "01/10/2009",
    "Product": "Product1",
    "Price": "1200",
    "Payment_Type": "Mastercard",
    "Country": "United Kingdom"
  },
  {
    "Transaction_date": "01/30/2009",
    "Product": "Product1",
    "Price": "1200",
    "Payment_Type": "Mastercard",
    "Country": "United Kingdom"
  },
  {
    "Transaction_date": "01/14/2009",
    "Product": "Product1",
    "Price": "1200",
    "Payment_Type": "Mastercard",
    "Country": "United Kingdom"
  },
  {
    "Transaction_date": "01/27/2009",
    "Product": "Product1",
    "Price": "1200",
    "Payment_Type": "Mastercard",
    "Country": "Spain"
  },
  {
    "Transaction_date": "01/02/2009",
    "Product": "Product1",
    "Price": "1200",
    "Payment_Type": "Mastercard",
    "Country": "Spain"
  },
  {
    "Transaction_date": "01/28/2009",
    "Product": "Product1",
    "Price": "1200",
    "Payment_Type": "Mastercard",
    "Country": "United Kingdom"
  },
  {
    "Transaction_date": "01/08/2009",
    "Product": "Product1",
    "Price": "1200",
    "Payment_Type": "Mastercard",
    "Country": "Canada"
  },
  {
    "Transaction_date": "01/08/2009",
    "Product": "Product1",
    "Price": "1200",
    "Payment_Type": "Mastercard",
    "Country": "United Kingdom"
  },
  {
    "Transaction_date": "01/04/2009",
    "Product": "Product1",
    "Price": "1200",
    "Payment_Type": "Mastercard",
    "Country": "United Kingdom"
  },
  {
    "Transaction_date": "01/27/2009",
    "Product": "Product1",
    "Price": "1200",
    "Payment_Type": "Mastercard",
    "Country": "United Kingdom"
  },
  {
    "Transaction_date": "01/17/2009",
    "Product": "Product1",
    "Price": "1200",
    "Payment_Type": "Mastercard",
    "Country": "Canada"
  },
  {
    "Transaction_date": "01/25/2009",
    "Product": "Product1",
    "Price": "1200",
    "Payment_Type": "Mastercard",
    "Country": "United Kingdom"
  },
  {
    "Transaction_date": "01/24/2009",
    "Product": "Product1",
    "Price": "1200",
    "Payment_Type": "Mastercard",
    "Country": "United Kingdom"
  },
  {
    "Transaction_date": "01/07/2009",
    "Product": "Product1",
    "Price": "1200",
    "Payment_Type": "Mastercard",
    "Country": "Canada"
  },
  {
    "Transaction_date": "01/21/2009",
    "Product": "Product1",
    "Price": "1200",
    "Payment_Type": "Mastercard",
    "Country": "United Kingdom"
  },
  {
    "Transaction_date": "01/02/2009",
    "Product": "Product1",
    "Price": "1200",
    "Payment_Type": "Mastercard",
    "Country": "Canada"
  },
  {
    "Transaction_date": "01/23/2009",
    "Product": "Product1",
    "Price": "1200",
    "Payment_Type": "Mastercard",
    "Country": "Spain"
  }
]